{
	"version": "0.3.0",
	"scope": "tree",
	"id": "getting-started",
	"name": "getting-started",
	"title": "getting-started",
	"description": "",
	"root": "0d105c94-ac6b-4c89-8985-010562d71f2e",
	"properties": {
		"channels": "facebook",
		"nlu": {
			"engine": "luis-strong",
			"app_id": "bbe8f01c-f610-4b0d-aff6-0e866422724b",
			"subscription_key": "991b48999cd146e386d658d3e1a9a07b"
		}
	},
	"nodes": {
		"0d105c94-ac6b-4c89-8985-010562d71f2e": {
			"id": "0d105c94-ac6b-4c89-8985-010562d71f2e",
			"name": "PriorityContextSelector",
			"title": "PriorityContextSelector",
			"description": "Selects by priority (first succesful) among the non-intent (pass-thru) children and by message intent the rest. A context is created for each child.  Contexts may have an expected intentId and entities, or a helper:true that would occur if no matching intent was found. If execution has a context already, it will continue to tick the current child, unless a bottom-up context search  changes the selected child.If more than one entity of a certain name, an entity array will be created. If leaveIfNoEntity is set, the previous context field will remain if currently there is no such entity. ",
			"properties": {
				"debug-log": "",
				"runningTimeoutSec": 600,
				"maxRetriesNumber": 5,
				"contexts": [
					{
						"intentId": "HelloIntent",
						"description": "chit-chat"
					},
					{
						"intentId": "HelpIntent",
						"description": "get help",
						"helper": 1
					}
				]
			},
			"display": {
				"x": 22,
				"y": -190
			},
			"children": [
				"adf3a9b3-1c72-4457-8ce4-3ca7218b78c8",
				"6833f259-de75-40b7-aafd-0305157c256b"
			]
		},
		"adf3a9b3-1c72-4457-8ce4-3ca7218b78c8": {
			"id": "adf3a9b3-1c72-4457-8ce4-3ca7218b78c8",
			"name": "GeneralMessage",
			"title": "Hello",
			"description": "Send the message from prompt (a string) or json-formatted in view (parsed to a json object) properties, with <%= %> global, member, volatile and message fields. if pushMessageOut is set, the message will be pushed immediately on drivers that expect answers on the response object, instead of waiting for the timeout - eg Alexa driver. image is an html file name under images folder.view is a view file under views folder. imageDataArrayName is the composite field name for an array object that contains data for the images",
			"properties": {
				"debug-log": "",
				"runningTimeoutSec": 600,
				"maxRetriesNumber": 5,
				"replayActionOnReturnFromContextSwitch": true,
				"view": false,
				"prompt": [
					"Hi You",
					"Hello Hello",
					"Welcome Sagi"
				],
				"pushMessageOut": false,
				"image": false,
				"imageDataArrayName": "",
				"imageHTML": false
			},
			"display": {
				"x": -146,
				"y": -66
			}
		},
		"6833f259-de75-40b7-aafd-0305157c256b": {
			"id": "6833f259-de75-40b7-aafd-0305157c256b",
			"name": "GeneralMessage",
			"title": "Help",
			"description": "Send the message from prompt (a string) or json-formatted in view (parsed to a json object) properties, with <%= %> global, member, volatile and message fields. if pushMessageOut is set, the message will be pushed immediately on drivers that expect answers on the response object, instead of waiting for the timeout - eg Alexa driver. image is an html file name under images folder.view is a view file under views folder. imageDataArrayName is the composite field name for an array object that contains data for the images",
			"properties": {
				"debug-log": "",
				"runningTimeoutSec": 600,
				"maxRetriesNumber": 5,
				"replayActionOnReturnFromContextSwitch": true,
				"view": false,
				"prompt": [
					"I'll help you anytime"
				],
				"pushMessageOut": false,
				"image": false,
				"imageDataArrayName": "",
				"imageHTML": false
			},
			"display": {
				"x": 198,
				"y": -68
			}
		}
	},
	"display": {
		"camera_x": 837.5,
		"camera_y": 549.5,
		"camera_z": 1,
		"x": 22,
		"y": -280
	},
	"state": "draft"
}