{
  "version": "0.9.0",
  "scope": "tree",
  "id": "nested-servo-bank-demo",
  "name": "nested-servo-bank-demo",
  "title": "nested-servo-bank-demo",
  "description": "",
  "root": "4845829a-89da-404e-8192-9a35ba77e630",
  "properties": {
    "channels": "chatsim",
    "replayActionOnContextSwitch": true,
    "nlu": {
      "he": {
        "engine": "wit",
        "accessToken": "7UVWOHBGLQ7VCQQRTVOIFREXUSNN6NIF"
      },
      "en": {
        "engine": "wit",
        "accessToken": "KDIYTFNWYPB72MUXSWV7YW3FF7MPLI5I"
      }
    },
    "facebook": {
      "validationToken": "Netanel37",
      "accessToken": "EAAEyBXyaJIwBAKpDOF6nEuaIQH2Xi6beqcU7v5wZATqnYOdp4CZBfZCCeEADgZBALhsuVaZAGiP49tKGJvOE7NpH5mI194OWwPH3iefZArqoCEBFqFwvV1CsQnpvZBg82h1NNBajPa6wTBaIezFgOnCwsZCOo0pTZBIXxjI6wPMfZBiAZDZD"
    },
    "resetMemory": 1,
    "defaultLang": "en",
    "debug-log": 0
  },
  "nodes": {
    "4845829a-89da-404e-8192-9a35ba77e630": {
      "id": "4845829a-89da-404e-8192-9a35ba77e630",
      "name": "PriorityContextSelector",
      "title": "PriorityContextSelector",
      "description": "A priority selector, where a child could be selected for ticking, if its expects a context that is on the target , or it is next in order. Each context has an expected intentId and entities. Each context has a map from message entities to context fields. If execution has a context already, it will continue to tick the current child, unless a bottom-up context search  changes the selected child.If more than one entity of a certain name, an entity array will be created. If leaveIfNoEntity is set, the previous context field will remain if currently there is no such entity. If a context has a 'helper':true member, and bottom-up search is not finding any context, then it will switch to it.",
      "properties": {
        "debug-log": "",
        "runningTimeoutSec": 600,
        "maxRetriesNumber": 5,
        "contexts": [{
            "intentId": "WireIntent",
            "description": {
              "en": "transfer money"
            },
            "entities": [{
              "contextFieldName": "amount",
              "entityName": "number",
              "entityIndex": 0,
              "leaveIfNoEntity": true
            }]
          },
          {
            "intentId": "BalanceIntent",
            "description": {
              "en": "check baance"
            },
            "entities": [{
              "contextFieldName": "accountNumber",
              "entityName": "toAccountNumber",
              "entityIndex": 0,
              "leaveIfNoEntity": true
            }]
          },
          {
            "helper": true,
            "intentId": ""
          }
        ]
      },
      "display": {
        "x": -308,
        "y": -504
      },
      "children": [
        "aff46b50-5f72-4962-92a4-6472060c911b",
        "e02372a1-55ea-4a89-85f1-db00cd2fbf06",
        "caa5690b-f5e2-40b1-86af-ee6ca663f32c"
      ]
    },
    "19f14c8b-006b-42e7-846f-e365d8b7a048": {
      "id": "19f14c8b-006b-42e7-846f-e365d8b7a048",
      "name": "AskAndWait",
      "title": "how much?",
      "description": "Ask the question as written in prompt (a string) or json-formatted in payload (parsed to a json object) properties, with <%= %> global, member, volatile and message fields. Then waits for resonse from user. If intents array filled, and response's intentId does not matches properties' intents  send a message for the user from the properties' help array. image is an html file name under images folder.view is a view file under views folder. imageDataArrayName is the composite field name for an array object that contains data for the images",
      "properties": {
        "debug-log": "",
        "runningTimeoutSec": 0,
        "maxRetriesNumber": 5,
        "replayActionOnReturnFromContextSwitch": false,
        "view": false,
        "prompt": [
          "how much would you like to transfer?"
        ],
        "imageHTML": false,
        "imageDataArrayName": "",
        "image": false,
        "intents": [],
        "help": []
      },
      "display": {
        "x": -590,
        "y": 4
      }
    },
    "aff46b50-5f72-4962-92a4-6472060c911b": {
      "id": "aff46b50-5f72-4962-92a4-6472060c911b",
      "name": "MemSequence",
      "title": "MemSequence",
      "description": "",
      "properties": {
        "debug-log": "",
        "runningTimeoutSec": 600,
        "maxRetriesNumber": 5
      },
      "display": {
        "x": -476,
        "y": -366
      },
      "children": [
        "13e064cf-b981-499d-8c01-9cd3f78a66f9",
        "ccb0c771-ac9d-45ff-b9c5-3d4129434b20",
        "a2d96dd2-22ee-49db-9e5a-eeb8afd95086"
      ]
    },
    "ccb0c771-ac9d-45ff-b9c5-3d4129434b20": {
      "id": "ccb0c771-ac9d-45ff-b9c5-3d4129434b20",
      "name": "GeneralMessage",
      "title": "GeneralMessage",
      "description": "Send the message from prompt (a string) or json-formatted in payload (parsed to a json object) properties, with <%= %> global, member, volatile and message fields. if pushMessageOut is set, the message will be pushed immediately on drivers that expect answers on the response object, instead of waiting for the timeout - eg Alexa driver. image is an html file name under images folder.view is a view file under views folder. imageDataArrayName is the composite field name for an array object that contains data for the images",
      "properties": {
        "debug-log": "",
        "runningTimeoutSec": 0,
        "maxRetriesNumber": 5,
        "replayActionOnReturnFromContextSwitch": false,
        "view": false,
        "prompt": [
          "transfer of $<%=context.amount%> scheduled"
        ],
        "pushMessageOut": false,
        "imageHTML": false,
        "imageDataArrayName": "",
        "image": false
      },
      "display": {
        "x": -462,
        "y": -116
      }
    },
    "e02372a1-55ea-4a89-85f1-db00cd2fbf06": {
      "id": "e02372a1-55ea-4a89-85f1-db00cd2fbf06",
      "name": "GeneralMessage",
      "title": "present balance",
      "description": "Send the message from prompt (a string) or json-formatted in payload (parsed to a json object) properties, with <%= %> global, member, volatile and message fields. if pushMessageOut is set, the message will be pushed immediately on drivers that expect answers on the response object, instead of waiting for the timeout - eg Alexa driver. image is an html file name under images folder.view is a view file under views folder. imageDataArrayName is the composite field name for an array object that contains data for the images",
      "properties": {
        "debug-log": "",
        "runningTimeoutSec": 0,
        "maxRetriesNumber": 5,
        "replayActionOnReturnFromContextSwitch": false,
        "view": false,
        "prompt": [
          "your balance is $10000%>"
        ],
        "pushMessageOut": false,
        "imageHTML": false,
        "imageDataArrayName": "",
        "image": false
      },
      "display": {
        "x": -290,
        "y": -306
      }
    },
    "442c81ff-9092-4f7d-b194-459f4865d9df": {
      "id": "442c81ff-9092-4f7d-b194-459f4865d9df",
      "name": "FieldNotEmptyCondition",
      "title": "FieldNotEmptyCondition",
      "description": "Succeeds if global, context, message or volatile fieldName is not empty",
      "properties": {
        "fieldName": "context.amount"
      },
      "display": {
        "x": -808,
        "y": -40
      }
    },
    "13e064cf-b981-499d-8c01-9cd3f78a66f9": {
      "id": "13e064cf-b981-499d-8c01-9cd3f78a66f9",
      "name": "MemPriority",
      "title": "MemPriority",
      "description": "",
      "properties": {
        "debug-log": "",
        "runningTimeoutSec": 600,
        "maxRetriesNumber": 5
      },
      "display": {
        "x": -642,
        "y": -156
      },
      "children": [
        "442c81ff-9092-4f7d-b194-459f4865d9df",
        "19f14c8b-006b-42e7-846f-e365d8b7a048"
      ]
    },
    "a2d96dd2-22ee-49db-9e5a-eeb8afd95086": {
      "id": "a2d96dd2-22ee-49db-9e5a-eeb8afd95086",
      "name": "AskInContext",
      "title": "Ask In Context",
      "description": "",
      "properties": {
        "debug-log": "",
        "runningTimeoutSec": 600,
        "maxRetriesNumber": 5,
        "view": false,
        "prompt": [
          "an amount question"
        ],
        "imageHTML": false,
        "imageDataArrayName": "",
        "replayActionOnReturnFromContextSwitch": true,
        "intents": [{
          "helper": true,
          "intentId": "",
          "description": {
            "en": ""
          },
          "entities": [{
            "contextFieldName": "",
            "entityName": "",
            "entityIndex": 0,
            "leaveIfNoEntity": true
          }]
        }]
      },
      "display": {
        "x": -212,
        "y": -68
      },
      "children": [
        "f283294c-589f-4fa7-b44c-259a48886c2b"
      ]
    },
    "f283294c-589f-4fa7-b44c-259a48886c2b": {
      "id": "f283294c-589f-4fa7-b44c-259a48886c2b",
      "name": "MemSequence",
      "title": "MemSequence",
      "description": "",
      "properties": {
        "debug-log": "",
        "runningTimeoutSec": 600,
        "maxRetriesNumber": 5
      },
      "display": {
        "x": -210,
        "y": 64
      },
      "children": [
        "6e7173e3-ab7b-44ed-8026-f0255f2b73ff",
        "1e5df640-d277-4694-95fd-30d7c29d1d28"
      ]
    },
    "1e5df640-d277-4694-95fd-30d7c29d1d28": {
      "id": "1e5df640-d277-4694-95fd-30d7c29d1d28",
      "name": "GeneralMessage",
      "title": "GeneralMessage",
      "description": "Send the message from prompt (a string) or json-formatted in payload (parsed to a json object) properties, with <%= %> global, member, volatile and message fields. if pushMessageOut is set, the message will be pushed immediately on drivers that expect answers on the response object, instead of waiting for the timeout - eg Alexa driver. image is an html file name under images folder.view is a view file under views folder. imageDataArrayName is the composite field name for an array object that contains data for the images",
      "properties": {
        "debug-log": "",
        "runningTimeoutSec": 0,
        "maxRetriesNumber": 5,
        "replayActionOnReturnFromContextSwitch": false,
        "view": false,
        "prompt": [
          "amount <%=context.amount%> accessible from lower context"
        ],
        "pushMessageOut": false,
        "imageHTML": false,
        "imageDataArrayName": "",
        "image": false
      },
      "display": {
        "x": -142,
        "y": 268
      }
    },
    "6e7173e3-ab7b-44ed-8026-f0255f2b73ff": {
      "id": "6e7173e3-ab7b-44ed-8026-f0255f2b73ff",
      "name": "FieldNotEmptyCondition",
      "title": "FieldNotEmptyCondition",
      "description": "Succeeds if global, context, message or volatile fieldName is not empty",
      "properties": {
        "fieldName": "context.amount"
      },
      "display": {
        "x": -416,
        "y": 270
      }
    },
    "caa5690b-f5e2-40b1-86af-ee6ca663f32c": {
      "id": "caa5690b-f5e2-40b1-86af-ee6ca663f32c",
      "name": "AskAndWait",
      "title": "how much?",
      "description": "Ask the question as written in prompt (a string) or json-formatted in payload (parsed to a json object) properties, with <%= %> global, member, volatile and message fields. Then waits for resonse from user. If intents array filled, and response's intentId does not matches properties' intents  send a message for the user from the properties' help array. image is an html file name under images folder.view is a view file under views folder. imageDataArrayName is the composite field name for an array object that contains data for the images",
      "properties": {
        "debug-log": "",
        "runningTimeoutSec": 0,
        "maxRetriesNumber": 5,
        "replayActionOnReturnFromContextSwitch": false,
        "view": false,
        "prompt": [
          "what would u like to do?"
        ],
        "imageHTML": false,
        "imageDataArrayName": "",
        "image": false,
        "intents": [],
        "help": []
      },
      "display": {
        "x": 204,
        "y": -134
      }
    }
  },
  "display": {
    "camera_x": 959,
    "camera_y": 472.9650000000256,
    "camera_z": 0.75,
    "x": -26,
    "y": -750
  },
  "custom_nodes": []
}
